[{
    "address": 200,
    "name": "MPPT",
    "description": "Maximum Power Point Tracker",
    "scandal_prefix": "MPPT",
    "output_channels": [
        {
            "channel": 22,
            "name": "Value",
            "description": "Some weird value",
            "scandal_id": "VALUE"
        }
    ],
    "input_channels": [
    ],
    "error_channels": [
    ]
}]
